<?xml version="1.0" encoding="utf-8"?>
<!-- Generator: Adobe Illustrator 19.1.0, SVG Export Plug-In . SVG Version: 6.00 Build 0)  -->
<svg version="1.1" id="Objects" xmlns="http://www.w3.org/2000/svg" xmlns:xlink="http://www.w3.org/1999/xlink" x="0px" y="0px"
	 viewBox="0 0 1048.6 687.5" style="enable-background:new 0 0 1048.6 687.5;" xml:space="preserve">
<style type="text/css">
	.st0{fill:#598CA1;}
	.st1{fill:#76BBD6;}
	.st2{fill:#BBE6FC;}
	.st3{fill:#FFFFFF;}
	.st4{fill:#AFAFAF;}
	.st5{fill:#FFFFFF;stroke:#1D1D1B;stroke-miterlimit:10;}
	.st6{fill:#B5B7B7;}
	.st7{fill:#382B19;}
	.st8{fill:#FFDCB8;}
	.st9{fill:#676B6B;}
	.st10{fill:#141414;}
	.st11{fill:#232728;}
	.st12{fill:#725C2B;}
	.st13{fill:#CB8F5E;}
	.st14{fill:#190F08;}
	.st15{fill:#513F19;}
	.st16{fill:#753427;}
	.st17{fill:#EDA69D;}
	.st18{fill:#5E737E;}
	.st19{fill:#D6F0FD;}
	.st20{fill:#1F2323;}
	.st21{fill:#313535;}
	.st22{fill:#1F2323;stroke:#657272;stroke-miterlimit:10;}
	.st23{fill:#464B4C;}
	.st24{fill:#CECECE;}
	.st25{fill:#F2F2F2;}
	.st26{fill:none;}
</style>
<g>
	<path class="st0" d="M96,650.4c0,0,108.6-11.4,157.6-11.4c66.3,0,122.2,17.6,168.9,12c102.3-12.2,324.4-12,324.4-12
		s90.5-15,157.1-14c24.2,0.4,84.9,6.5,96,12c37.9,19-14.4,81-14.4,81L121,723L96,650.4z"/>
	<path class="st1" d="M472.3,421.7c0,0,40.6,68.9,44.3,97.1c3.7,28.3-63.3,91.5-109.8,119.7c-98.4,59.6-145.9,39.9-193.2,29.6
		c-37.4-8.1-93-30.4-136-70c0,0-72.5,102.7-106.9,79.3l-16,198c0,0,718.1,44.3,718.1,48s335.7-66.4,335.7-66.4l40.2-238.1
		c0,0-19,41.3-101,43.3c-40.8,1-118.7-3.1-154.3-24S549.8,444.2,524.6,428.7C499.4,413.1,472.3,421.7,472.3,421.7z"/>
	<path class="st2" d="M1039.1,681.6c0,0-87.5,35-139.1-9.3C848.3,628,780.7,518.7,710.7,456c-65.2-58.3-169.2-109.1-232.9-106.8
		c-34.9,1.2-8.7,34.4-5.8,49.2c2.9,14.8,36.1,78.7,50.2,89.8c14.1,11.1,71.1,40.6,87.5,76.2C626,600,607,674.2,492,698.8
		S205.5,767.2,133,841l853.3,6.1L1039.1,681.6z"/>
	<path class="st3" d="M617,580.9c2.5-1.2,0.6-23.2-8.8-28.3c-9.4-5.1,1.2-14.1-7.7-18.4c-8.9-4.3-12.7-4.9-14.2-13.5
		c-1.5-8.6-10.6-7.3-24.4-11.4c-13.9-4.1-16.4-15.7-19.5-21.2c-3.1-5.5-18.4,0-19.7-9.2c-1.2-9.2,15.4-16,7.4-25.2
		c-8-9.2-30.7-12.9-38.1-25.8c-7.4-12.9,7.4-21.5,0-29.5c-7.4-8-19.1-12.3-17.8-19.1c1.2-6.8,7.2-12.9-0.1-14.8s-2.5-4.7,0-5.5
		c2.5-0.9,5.3-2.5,2.7-8.1c-2.6-5.7-5.7,0.2-9.8-11.5c-4.2-11.7-23.8-65.2-37.7-63.3s-4.9,28.6,5.5,38.7
		c10.5,10.1,27.4,26.7,20.3,24.9c-7.1-1.8-30.1-33.2-38.4-29.8c-8.3,3.4-3.7,22.7,9.2,25.5c12.9,2.8,16.9,9.2,9.2,9.8
		c-7.7,0.6-23.1-5.2-34.1-10.8c-11.1-5.5-36.9,2.8-30.7,22.7c6.1,20,31.4,15.1,40.6,12c9.2-3.1,26.4,2.8,26.4,12
		c0,9.2-12.3,4.9-18.8,9.8c-6.5,4.9-6.8,18.1,3.4,19.4c10.1,1.2,22.7-5.8,30.4,1.2c7.7,7.1,7.7,12.6,2.8,19.1
		c-4.9,6.5-6.8,18.1,0,20c6.8,1.8,19.7-3.4,24,4.3s4,17.2,16.3,21.5s18.4,3.1,24,11.7s3.4,26.4,15.7,28c12.3,1.5,20.3-1.5,26.7,2.5
		c6.5,4,8.8,7.7,7,12.9c-1.8,5.2-0.8,9.2,5.9,9.8c6.8,0.6,17.1,0.9,20.1,6.5c3,5.5,0.8,8.6,6.7,13.2
		C607.3,565.6,609.8,584.3,617,580.9z"/>
	<path class="st3" d="M392.3,314.5c-7.9-8.4-26-12-17.3,0S403,325.8,392.3,314.5z"/>
	<path class="st3" d="M420,298.7c0,0-4.7-20.1-10.7-16.7S415.3,296.7,420,298.7z"/>
	<path class="st3" d="M401.3,276.2c0,0-17.7-17.6-25-27.8c-7.3-10.2-30-10.2-14.7,10.5C377,279.6,399.9,279.6,401.3,276.2z"/>
	<path class="st3" d="M296,292.7c-15.3-9-18,9.1-4.7,13.2C304.7,310,310.7,301.3,296,292.7z"/>
	<path class="st3" d="M388.9,216.4c7.3,6.4-7-32.2-18.8-26.5C358.4,195.7,381.6,210,388.9,216.4z"/>
	<path class="st3" d="M365.1,384c14.4,1.1-42.2-20.7-56.3-13.3C294.7,378,348.2,382.7,365.1,384z"/>
	<path class="st3" d="M340.6,339c-10.6-2.3-12.1,9.9,0,10.1C352.7,349.3,351.2,341.3,340.6,339z"/>
	<path class="st2" d="M86,658c0,0,92.2,12,183.1,100S98,806,62,758S86,658,86,658z"/>
	<path class="st3" d="M378.5,297.4c-3-2.3-4,2.4,0,4.7C382.5,304.5,383.5,301.3,378.5,297.4z"/>
	<path class="st3" d="M486.2,355.7c0,0-11.5-0.7-15.9-21.2c-4.3-20.4-12.6-27.3-10.6-16.7C461.8,328.4,463.7,350,486.2,355.7z"/>
	<path class="st3" d="M465.9,290.2c-6.8-11.8-8.9-1.3-7.4,6.6S470.3,297.9,465.9,290.2z"/>
	<path class="st3" d="M443,270c1.6-8-9.2-12.7-8.1-4.7S441.4,278,443,270z"/>
	<path class="st3" d="M458,271c-1.4-9.1-0.5-23.3-4.8-27c-4.3-3.7-0.4,9.3,0,15.8C453.7,266.3,458.9,276.4,458,271z"/>
</g>
<g>
	<path class="st3" d="M85.2,497.5c0,0-47.8,8.4-48.4-25.2C36.2,438.8,90.4,462,90.4,462s17.4-32.9,54.9-29.7s47.8,33,47.8,33
		s16.8-15.5,29.7,0c0,0,9.7-47.8,54.9-45.9s47.8,47.1,46.5,56.2c0,0,20.7-20.7,32.9,1.3c0,0,39.4-11,42,9
		c2.6,20-58.8,18.1-58.8,18.1s-18.7,28.4-72.3,27.8s-73-16.1-73-16.1S118.2,558.9,85.2,497.5z"/>
	<path class="st3" d="M907.5,143.9c0,0,3.9-34.9-26.4-35.9S841,137.3,841,137.3s-1.5-20.4-28.9-17.5c-27.4,2.9-25.9,24.1-25.9,24.1
		s-9.3-2.6-13.2,4.2c-3.9,6.8,4.4,10.3,4.4,10.3s-21-5.9-21.5,3.9c-0.5,9.8,24.4,0,24.4,0s16.6,10.8,29.8-5.4c0,0,43,23,82.2-3.4
		c0,0,32.8,14.6,42.5-1.5c4.9-8.1-15.6-2.9-15.6-2.9S922.7,134.3,907.5,143.9z"/>
</g>
<g>
	<path class="st1" d="M482,347.3c0,0-7,1.5-1.5,10.7c5.5,9.3,62,66.6,90.1,83.9c28.1,17.3,153.8,79.7,176.4,79
		c17.6-0.5-22.9-47-42.3-59.7C685.3,448.7,509.5,352.4,482,347.3z"/>
	<polygon class="st4" points="453.3,176.1 678.8,276.5 884.1,389.8 657.1,332.9 	"/>
	<path class="st5" d="M583.9,237.9"/>
	<g>
		<g>
			<g>
				<path class="st6" d="M545.6,225.2c0,0-12.6-70-45-84.7s-45.5,25.1-45.5,25.1s6.1,9,11.5,9.8c0,0,10.6-34.4,29-24.1
					c25.5,14.3,21.9,63.5,41.3,80.2C555.9,247.9,584.1,242,545.6,225.2z"/>
				<path class="st7" d="M459.9,164.6c0,0-11.2-2.2-15.6-7.3s-12-21.1-12-21.1s-15.5,1.5-14.4,12.4c0,0,8.9,17.5,28.6,23.9l6.6,0.2
					c0,0,1,3.2,3.2,5.5s8.5,4,10.1,4.5c1.7,0.5,1.9-11.6,1.9-11.6L459.9,164.6z"/>
			</g>
			<path class="st6" d="M575.6,236.5c0,0,11.5,67.7,25.3,94.7l-16.6,5.5c0,0-10.9-62.7-15.1-80.5s-23.5-14.5-28.1-23.9
				c-4.7-9.3,2.2-20.1,15.2-15C569.3,222.5,575.6,236.5,575.6,236.5z"/>
		</g>
		<path class="st6" d="M577.9,144.3c0,0-30.1,19.8-51.7-1.4c-21.6-21.2-17.2-38.3-17.6-53.6c0,0-5.3-2-13.1-0.4
			c0,0-6.2,39.3,24,59.6c30.2,20.3,48.7,4.6,54.7,2.7C580.3,149.3,585.9,140.1,577.9,144.3z"/>
		<path class="st6" d="M604.3,141.6c1.4,0.2,49,11,54.2,38.4s-45.1,40.2-58.3,40.2c0,0-7.9-10.9-1.5-15.4c0,0,51.5,0.2,50-21.7
			c-1.3-19.1-36.5-29.9-45.2-30.5C594.8,151.8,597.4,140.7,604.3,141.6z"/>
		<g>
			<path class="st6" d="M572.2,149.1c0,0-9.3,25.2-13.2,35.2c-3.9,10.1-11.8,17.5-18.5,19.7c0,0-5.5,16.9-4.1,18.6l6.9-2.7l0.5,6.1
				c0,0,24.4,17.6,40.1,22.6c0,0-3-4.2,0-9.5c7.4-13,21-38.1,25.2-55.3c5.9-24.1,1.3-41.5-4.8-42.3S572.2,149.1,572.2,149.1z"/>
			<path class="st8" d="M580.6,133.2c0,0,2.4,12.8,0.8,17c-1.6,4.2,6.8,5.9,9.2,1.6c2.4-4.2-0.6-19.5-0.2-20.3
				C590.7,130.8,580.6,133.2,580.6,133.2z"/>
			<path class="st2" d="M584.8,144.3l-2,8.2l-0.8-6.8l-6.2,7.7c0,0-10.7,36.8-16.8,45.6c0,0,36-33.2,34.7-45.7
				c-1.3-12.5-2.6-7.6-2.6-7.6L584.8,144.3z"/>
			<path class="st9" d="M577.9,148.7c0,0-7.5,4.6-11.5,5.2l2.8,15.4c0,0-9,3.5-12.6,6c0,0,1.2,23.3-4.8,33c0,0,14.9-11.6,27.4-61.9
				C579.9,144.8,577.9,148.7,577.9,148.7z"/>
			<path class="st9" d="M592.6,146.9c0,0,4.5,5.2,11.4,10.8c0,0-15.3,12.6-18.7,14.9c0,0,9.7,11.3,9.2,17.5c0,0-37.2,14-42.8,18.3
				c0,0,5.5-7.4,12.5-14.4C571.1,186.9,596.6,162.7,592.6,146.9z"/>
			<path class="st10" d="M585.9,152c0,0-3.1-1.8-4.8-0.7c0,0-2.3,3.8-2.4,4.9c-0.1,1.1,5.1,3,6.7,2.3
				C586.9,157.8,585.9,152,585.9,152z"/>
			<path class="st10" d="M584.1,155.9c0,0-1.1,6.2,3,8.6c4.1,2.4,22,1.2,35.5-14.3c18.1-20.8,49.3-14.3,55.2-13.1
				c10.7,7.4,16.1,15.5,19.4,18.4c0,0-19,6.4-21.7,9c0,0-31.2-16.1-43.6-2.7c-12.4,13.4-31.4,15.2-36.9,13.8
				c-5.5-1.3-17.1-5.1-14.7-19.1L584.1,155.9z"/>
			<path class="st2" d="M582.6,142.9c0,0-1.3-0.7-4-0.5c0,0-1.6,5.4-3,7.8l5.3,0C580.8,150.1,582.5,145.2,582.6,142.9z"/>
			<path class="st2" d="M591.4,138.1l-6.6,6.2c0,0,4.2,6,4.8,6.9c0,0,3.9-5.5,4.8-8.5L591.4,138.1z"/>
			<path class="st2" d="M542.7,203.1l-1.9,14l3,0.6l-0.6,2.9c0,0,17.7,17.1,27.9,21.4c0,0-11.3-5.7-29.8-19l0.9-3.8
				c0,0-1.8-1.1-2.7-1.2C539.4,218,540.1,207.4,542.7,203.1z"/>
			
				<ellipse transform="matrix(-0.5774 0.8165 -0.8165 -0.5774 1035.5754 -118.2946)" class="st11" cx="548.4" cy="208.9" rx="2" ry="1.4"/>
			
				<ellipse transform="matrix(-0.7083 0.7059 -0.7059 -0.7083 1081.3794 -21.1925)" class="st11" cx="545.1" cy="212.8" rx="2" ry="1.4"/>
			<path class="st11" d="M551.8,208.4c0,0-5.1,7.1-6.7,8.6C545.1,217,549.4,210.8,551.8,208.4z"/>
		</g>
		<path class="st8" d="M601,205.6c0,0-5.2-7.7-9.7-9.5s-7.1-1.3-5.7,1.1c1.4,2.4,5.8,6.2,6.1,8.9c0,0-4-2.8-8.3-3.4
			s-7.6,0.8-7.5,2.8c0.1,2,6.1,3.6,8.7,4.4s4.2,3.1,4.2,3.1s-7.8-3.2-11.2-0.3c-3.4,2.9-1.4,5.7,1.5,5.5c2.9-0.2,8.4,0.8,10.2,1.3
			c1.9,0.5,9.2,2.5,11.2,0.5C602.5,217.9,604.8,208.6,601,205.6z"/>
		<g>
			<path class="st8" d="M578,57c0,0-30.4,62.5-28.8,66.8c1.6,4.2,34.4,13.9,38.7,12.6c4.2-1.3,21.6-21.1,27.1-31.8
				c5.5-10.7,4.7-44-0.5-47.3C609.4,54,578,57,578,57z"/>
			<path class="st12" d="M581.6,62c0,0-16.8,0.9-17.9-9.6s9.1,0.2,9.1,0.2s-4.7-19.4,4.9-25.4s16.9-2.3,17.8,0.5S591,36,591,36
				s25.7-7.4,29,0.4s-7.9,7.3-7.9,7.3s19.9,1.7,25.5,15.2c0,0,14.4-1.7,15.3,2.5c0.9,4.2-4.7,4.4-4.7,4.4s8.4,8.3,4.4,11
				c-4.1,2.7-12.6-3.5-12.6-3.5s-6.4,28.5-23.4,37.2c0,0,10.1,13.2,5.9,15.9s-8.2-5.8-8.2-5.8s4.6,11.3-0.7,11.9
				c-5.3,0.6-11.3-7.2-10.2-11.4c1.2-4.2,11.6-16.6,11.6-16.6s-14-12.7,0.6-33.6c0,0-16.9,4.4-18.9,0.5s6.1-5.1,6.1-5.1
				s-21.8,4.3-24.9,1.1C574.8,64.2,581.6,62,581.6,62z"/>
			<path class="st8" d="M610.1,107.5c0,0,8-9.2,12.8-6.3c4.8,2.9,8.9,12.2,4.8,17.3c-4.1,5.1-8.6,8.9-16.5,3.4
				C603.2,116.4,610.1,107.5,610.1,107.5z"/>
			<g>
				<path class="st13" d="M583.5,81.4c0,0-4.5,10.9-6.4,10c-1.9-0.9-4.6-4.7-7.1-2.8c-2.5,1.9-1.2,6.1,4.2,7.8c0,0-8.2-1.4-7-6.7
					c1.2-5.2,6.5-3.7,8.1-2.1C576.8,89.3,580.3,87,583.5,81.4z"/>
				<path class="st14" d="M588.4,85.1c0,0,10.5-0.1,12.7,1.2c0,0-6.1,0.5-8.4,1c0,0,6.2,3.7,6.5,5.8
					C599.3,93.1,590.3,89.5,588.4,85.1z"/>
				<g>
					<path class="st15" d="M590,79.7c0,0,5.6-6.7,11.4-1.4C601.4,78.3,594.9,78.1,590,79.7z"/>
					<path class="st15" d="M575.7,68.8c0,0,7.1-2.6,8,2.5C583.7,71.3,579,69,575.7,68.8z"/>
				</g>
				<g>
					<path class="st16" d="M564.6,104.9c0,0,1.3,19.6,9.6,24c1.8-12,14.8-14.1,20-14.5c2.8-4.7,4.7-8.6,4.7-8.6
						C591.2,106.7,564.6,104.9,564.6,104.9z"/>
					<path class="st17" d="M574.2,128.9c0.7,0.4,1.5,0.7,2.3,0.8c6.4,1,13.3-8,17.7-15.3C589.1,114.8,576.1,116.9,574.2,128.9z"/>
				</g>
			</g>
		</g>
		<g>
			<path class="st8" d="M496.2,89.5c0,0-7.5-11.7-7.8-15.8c-0.3-4.1,12.5-3,16.7-0.2s0.8,15.9,0.8,15.9S501.6,88.1,496.2,89.5z"/>
			<g>
				<polygon class="st18" points="434.2,36.9 494.7,51.4 487,85 427.7,78.3 				"/>
				<polygon class="st19" points="440.2,42.8 487.5,51.8 485,70.3 436.1,64.3 				"/>
			</g>
			<g>
				<polygon class="st18" points="530.6,75.5 565.7,75.1 567.1,84.2 534.1,85.3 				"/>
				<polygon class="st19" points="535.3,76.7 566,76.9 566.5,80.2 535.2,81.2 				"/>
				<path class="st18" d="M563.5,74.9l10.4-2.5c0,0,5.1,5.6,2.5,12.4l-11,0.5L563.5,74.9z"/>
			</g>
			<g>
				<polygon class="st18" points="488.1,57.8 540.3,72.1 534.3,91.6 482.7,79.5 				"/>
				<polygon class="st19" points="494.1,61 537.4,73.3 534.3,83.8 491.7,73.6 				"/>
			</g>
			<path class="st8" d="M506.2,88.9c0,0,11.6-4.1,13.3-7.1c1.7-3,2-12.3,0.4-13.7c-1.6-1.3-6.5,0.8-6,9.1c0,0-11-1-11.6,4.1
				C501.8,86.5,503.4,87.2,506.2,88.9z"/>
			<g>
				<path class="st18" d="M396.4,14.9L441.5,28l-14.6,57.4L382,79.2C382,79.2,395.4,20.4,396.4,14.9z"/>
				<path class="st19" d="M401.3,22.4l35.7,8.9l-8,33l-37.8-8C391.2,56.3,400.7,25.6,401.3,22.4z"/>
			</g>
		</g>
	</g>
	<g>
		<g>
			<g>
				<path class="st20" d="M796.6,321.3l18.1-9.6c1.9-1,4.2-0.3,5.2,1.6l2.3,4.3c1,1.9,0.3,4.2-1.6,5.2l-0.2,0.1
					c0-0.7-0.1-1.4-0.4-2.1l-2-3.8c-0.9-1.7-2.8-2.4-4.2-1.7l-13.7,7.3c-1.4,0.8-1.9,2.7-1,4.4l2,3.8c0.4,0.7,0.9,1.2,1.5,1.5
					l-0.2,0.1c-1.9,1-4.2,0.3-5.2-1.6l-2.3-4.3C794,324.6,794.7,322.3,796.6,321.3z"/>
			</g>
			<g>
				<path class="st21" d="M798.6,320.2l18.1-9.6c1.9-1,4.2-0.3,5.2,1.6l2.3,4.3c1,1.9,0.3,4.2-1.6,5.2l-0.2,0.1
					c0-0.7-0.1-1.4-0.4-2.1l-2-3.8c-0.9-1.7-2.8-2.4-4.2-1.7l-13.7,7.3c-1.4,0.8-1.9,2.7-1,4.4l2,3.8c0.4,0.7,0.9,1.2,1.5,1.5
					l-0.2,0.1c-1.9,1-4.2,0.3-5.2-1.6l-2.3-4.3C796,323.5,796.7,321.2,798.6,320.2z"/>
			</g>
			<path class="st20" d="M793.4,405.7c1,1.9,3.4,2.6,5.2,1.6l72.1-38.3c1.9-1,2.6-3.4,1.6-5.2L844,310.4c-1-1.9-3.4-2.6-5.2-1.6
				l-72.1,38.3c-1.9,1-2.6,3.4-1.6,5.2L793.4,405.7z"/>
			<path class="st22" d="M798.7,402.9c1,1.9,3.3,2.7,5,1.7l67.2-35.7c1.8-0.9,2.4-3.2,1.4-5.1L844,310.4c-1-1.9-3.3-2.7-5-1.7
				l-67.2,35.7c-1.8,0.9-2.4,3.2-1.4,5.1L798.7,402.9z"/>
			<path class="st21" d="M805.4,399.3c1,1.9,3.3,2.7,5.1,1.7l67.8-36c1.8-0.9,2.4-3.3,1.4-5.1l-28.3-53.4c-1-1.9-3.3-2.7-5.1-1.7
				l-67.8,36c-1.8,0.9-2.4,3.3-1.4,5.1L805.4,399.3z"/>
			<path class="st23" d="M809.6,393.4c0.9,1.7,2.9,2.4,4.5,1.5l59.7-31.7c1.6-0.8,2.2-2.9,1.3-4.6L849.8,311
				c-0.9-1.7-2.9-2.4-4.5-1.5l-59.7,31.7c-1.6,0.8-2.2,2.9-1.3,4.6L809.6,393.4z"/>
		</g>
	</g>
	<g>
		<path class="st3" d="M564.2,302c0,0,151.4-136.7,160.2-141.3l-92.5,236.6L564.2,302z"/>
		<polygon class="st24" points="746.9,390.4 724.4,160.8 632,394.9 		"/>
	</g>
	<g>
		<path class="st3" d="M453.3,176.1l219.7,136.8l-130.4,86.7c0,0-58.6-44.1-62-46.6C477.1,350.4,453.3,176.1,453.3,176.1z"/>
		<path class="st24" d="M646.5,451.5c2.8-0.3,26.4-138.6,26.4-138.6l-130.4,86.7C542.5,399.6,641.8,452,646.5,451.5z"/>
		<polygon class="st25" points="884.1,389.8 672.9,312.9 646.5,451.5 708.7,475.7 		"/>
		<path class="st3" d="M714.1,473c6.6,3.1,3,6-5.5,2.7c-6.2-2.4-32.7-8.3-44.7-12.3s-20-2-32-8c-12-6-25.2-15.9-35.3-20.3
			s-37.1-16.2-53.2-27.3c-16.2-11.1-27.6-30.5-37.6-31.2c-9.9-0.7-16.9-15.1-25.2-21.1c-6.6-4.8-2.4-7.6,5.4-2.6
			c7.8,5.1,29.3,23.6,35.2,23.7s18.1,9.7,22.7,13.2c4.6,3.5,17,13.8,28.5,18c11.5,4.2,40.1,25,45.4,27.3
			c5.4,2.3,16.7,13.2,26.4,12.3C654,446.4,705,468.6,714.1,473z"/>
	</g>
</g>
<rect x="123" y="-77" class="st26" width="800" height="800"/>
</svg>
